<svg width="50" height="51" viewBox="0 0 50 51" fill="none" xmlns="http://www.w3.org/2000/svg">
<rect y="0.5" width="50" height="50" rx="25" fill="#30D094"/>
<path d="M25 13.05C18.125 13.05 12.5 18.6625 12.5 25.575C12.5 31.825 17.075 37.0125 23.05 37.95V29.2H19.875V25.575H23.05V22.8125C23.05 19.675 24.9125 17.95 27.775 17.95C29.1375 17.95 30.5625 18.1875 30.5625 18.1875V21.275H28.9875C27.4375 21.275 26.95 22.2375 26.95 23.225V25.575H30.425L29.8625 29.2H26.95V37.95C29.8956 37.4848 32.5778 35.9819 34.5124 33.7126C36.4471 31.4432 37.5067 28.557 37.5 25.575C37.5 18.6625 31.875 13.05 25 13.05Z" fill="white"/>
</svg>
