<svg width="24" height="25" viewBox="0 0 24 25" fill="none" xmlns="http://www.w3.org/2000/svg">
<path d="M5.50008 3.5C5.36867 3.49972 5.2385 3.52539 5.11703 3.57555C4.99557 3.62571 4.88521 3.69936 4.79228 3.79228C4.69936 3.88521 4.62571 3.99557 4.57555 4.11703C4.52539 4.2385 4.49972 4.36867 4.5 4.50008V20.4999C4.5 21.0001 4.99992 21.5 5.50008 21.5H14.5001C15 21.5 15.4999 21.0001 15.4999 20.4999V15.5H16.0001C16.5 15.5 16.5 15.9999 16.5 15.9999V18.0001C16.5 18.9999 16.9999 19.5001 18 19.5001C19.0001 19.5001 19.5 18.9999 19.5 18.0001V12.5C19.5 11.4999 17.5001 10.5001 17.5001 9.5V6.5H16.5L15.4999 5.49992V4.50008C15.5002 4.36869 15.4745 4.23854 15.4244 4.11709C15.3743 3.99564 15.3006 3.88529 15.2077 3.79237C15.1148 3.69945 15.0045 3.62579 14.8831 3.57562C14.7616 3.52545 14.6315 3.49975 14.5001 3.5H5.50008ZM6.49992 5.49992H13.5V9.5H6.49992V5.49992ZM15.4999 8.49992H16.5V9.99992C16.5 11 18.4999 12.0001 18.4999 12.9999V18.0001C18.4999 18.5 18 18.5 18 18.5C18 18.5 17.5001 18.5 17.5001 18.0001V15.5C17.5001 15.0001 16.9999 14.4999 16.5 14.4999H15.4999V8.49992Z" fill="white"/>
</svg>
