<svg width="24" height="25" viewBox="0 0 24 25" fill="none" xmlns="http://www.w3.org/2000/svg">
<path d="M12.89 18.5584C12.6407 18.4684 12.3658 18.481 12.1258 18.5935C11.8858 18.706 11.7003 18.9092 11.61 19.1584L10.88 21.1584C10.79 21.4077 10.8026 21.6826 10.9151 21.9226C11.0276 22.1626 11.2308 22.3482 11.48 22.4384C11.589 22.478 11.7041 22.4983 11.82 22.4984C12.0255 22.4983 12.226 22.4349 12.3942 22.3168C12.5624 22.1987 12.6901 22.0317 12.76 21.8384L13.49 19.8384C13.5801 19.5891 13.5675 19.3143 13.455 19.0742C13.3425 18.8342 13.1393 18.6487 12.89 18.5584ZM8.89002 18.5584C8.64071 18.4684 8.36584 18.481 8.12583 18.5935C7.88581 18.706 7.70028 18.9092 7.61002 19.1584L6.88002 21.1584C6.78996 21.4077 6.80257 21.6826 6.91507 21.9226C7.02758 22.1626 7.23078 22.3482 7.48002 22.4384C7.58902 22.478 7.70407 22.4983 7.82002 22.4984C8.02553 22.4983 8.22603 22.4349 8.39423 22.3168C8.56242 22.1987 8.69015 22.0317 8.76002 21.8384L9.49002 19.8384C9.58008 19.5891 9.56747 19.3143 9.45497 19.0742C9.34246 18.8342 9.13926 18.6487 8.89002 18.5584ZM8.89002 11.5584C8.64071 11.4684 8.36584 11.481 8.12583 11.5935C7.88581 11.706 7.70028 11.9092 7.61002 12.1584L6.51002 15.1584C6.45544 15.3094 6.438 15.4713 6.4592 15.6304C6.48039 15.7896 6.53959 15.9413 6.63179 16.0727C6.72398 16.2041 6.84647 16.3114 6.98889 16.3855C7.13131 16.4596 7.28948 16.4984 7.45002 16.4984C7.65553 16.4983 7.85603 16.4349 8.02423 16.3168C8.19242 16.1987 8.32015 16.0317 8.39002 15.8384L9.49002 12.8384C9.58008 12.5891 9.56747 12.3143 9.45497 12.0742C9.34246 11.8342 9.13926 11.6487 8.89002 11.5584ZM12.89 11.5584C12.6407 11.4684 12.3658 11.481 12.1258 11.5935C11.8858 11.706 11.7003 11.9092 11.61 12.1584L10.51 15.1584C10.4554 15.3094 10.438 15.4713 10.4592 15.6304C10.4804 15.7896 10.5396 15.9413 10.6318 16.0727C10.724 16.2041 10.8465 16.3114 10.9889 16.3855C11.1313 16.4596 11.2895 16.4984 11.45 16.4984C11.6555 16.4983 11.856 16.4349 12.0242 16.3168C12.1924 16.1987 12.3201 16.0317 12.39 15.8384L13.49 12.8384C13.5801 12.5891 13.5675 12.3143 13.455 12.0742C13.3425 11.8342 13.1393 11.6487 12.89 11.5584ZM18.42 6.71843C17.809 5.31443 16.7545 4.14951 15.4181 3.40216C14.0817 2.65481 12.5371 2.36626 11.021 2.58074C9.50489 2.79522 8.10095 3.50088 7.02427 4.58961C5.9476 5.67833 5.25761 7.09004 5.06002 8.60843C4.18743 8.81939 3.41118 9.31776 2.85615 10.0233C2.30111 10.7289 1.99957 11.6007 2.00002 12.4984C1.99823 13.0648 2.11677 13.6252 2.34777 14.1424C2.57878 14.6595 2.91699 15.1218 3.34002 15.4984C3.43738 15.5919 3.55266 15.6648 3.67892 15.7125C3.80518 15.7603 3.9398 15.782 4.07467 15.7763C4.20955 15.7707 4.34188 15.7378 4.46369 15.6796C4.5855 15.6214 4.69428 15.5392 4.78346 15.4379C4.87264 15.3365 4.94037 15.2182 4.98259 15.0899C5.0248 14.9617 5.04062 14.8263 5.02909 14.6918C5.01755 14.5573 4.97891 14.4265 4.91548 14.3074C4.85205 14.1882 4.76515 14.0831 4.66002 13.9984C4.45032 13.8092 4.28309 13.5777 4.16933 13.3191C4.05557 13.0606 3.99787 12.7809 4.00002 12.4984C4.00002 11.968 4.21073 11.4593 4.58581 11.0842C4.96088 10.7091 5.46959 10.4984 6.00002 10.4984C6.26524 10.4984 6.51959 10.3931 6.70713 10.2055C6.89466 10.018 7.00002 9.76365 7.00002 9.49843C7.00257 8.31571 7.42431 7.17218 8.19029 6.27101C8.95627 5.36984 10.0169 4.76938 11.1838 4.5763C12.3506 4.38323 13.5482 4.61004 14.5636 5.21644C15.579 5.82284 16.3466 6.76957 16.73 7.88843C16.7872 8.06027 16.8899 8.21336 17.0273 8.33136C17.1647 8.44936 17.3315 8.52785 17.51 8.55843C18.2042 8.67817 18.8341 9.03836 19.2893 9.5759C19.7446 10.1134 19.9962 10.794 20 11.4984C20.0153 12.2347 19.7509 12.9494 19.26 13.4984C19.1004 13.6972 19.0227 13.9495 19.0429 14.2037C19.063 14.4579 19.1795 14.6947 19.3686 14.8659C19.5576 15.037 19.8048 15.1295 20.0597 15.1244C20.3147 15.1193 20.558 15.017 20.74 14.8384C21.2908 14.209 21.6749 13.4514 21.8572 12.6351C22.0394 11.8188 22.0139 10.9698 21.7831 10.1659C21.5523 9.36194 21.1234 8.62876 20.5359 8.03346C19.9483 7.43817 19.2209 6.99978 18.42 6.75843V6.71843ZM16.89 18.5584C16.6407 18.4684 16.3658 18.481 16.1258 18.5935C15.8858 18.706 15.7003 18.9092 15.61 19.1584L14.88 21.1584C14.79 21.4077 14.8026 21.6826 14.9151 21.9226C15.0276 22.1626 15.2308 22.3482 15.48 22.4384C15.589 22.478 15.7041 22.4983 15.82 22.4984C16.0255 22.4983 16.226 22.4349 16.3942 22.3168C16.5624 22.1987 16.6901 22.0317 16.76 21.8384L17.49 19.8384C17.5801 19.5891 17.5675 19.3143 17.455 19.0742C17.3425 18.8342 17.1393 18.6487 16.89 18.5584ZM16.89 11.5584C16.6407 11.4684 16.3658 11.481 16.1258 11.5935C15.8858 11.706 15.7003 11.9092 15.61 12.1584L14.51 15.1584C14.4554 15.3094 14.438 15.4713 14.4592 15.6304C14.4804 15.7896 14.5396 15.9413 14.6318 16.0727C14.724 16.2041 14.8465 16.3114 14.9889 16.3855C15.1313 16.4596 15.2895 16.4984 15.45 16.4984C15.6555 16.4983 15.856 16.4349 16.0242 16.3168C16.1924 16.1987 16.3201 16.0317 16.39 15.8384L17.49 12.8384C17.5801 12.5891 17.5675 12.3143 17.455 12.0742C17.3425 11.8342 17.1393 11.6487 16.89 11.5584Z" fill="white"/>
</svg>
