<svg width="26" height="26" viewBox="0 0 26 26" fill="none" xmlns="http://www.w3.org/2000/svg">
<path d="M13 0.550049C6.125 0.550049 0.5 6.16255 0.5 13.075C0.5 19.3251 5.075 24.5125 11.05 25.45V16.7H7.875V13.075H11.05V10.3125C11.05 7.17505 12.9125 5.45005 15.775 5.45005C17.1375 5.45005 18.5625 5.68755 18.5625 5.68755V8.77505H16.9875C15.4375 8.77505 14.95 9.73755 14.95 10.725V13.075H18.425L17.8625 16.7H14.95V25.45C17.8956 24.9849 20.5778 23.4819 22.5124 21.2126C24.4471 18.9433 25.5067 16.0571 25.5 13.075C25.5 6.16255 19.875 0.550049 13 0.550049Z" fill="white"/>
</svg>
